-a="E:\Munka Yaw VR\Game Projects\SpaceFighter new\Library\PlayerScriptAssemblies\Assembly-CSharp.dll"
-a="E:\Munka Yaw VR\Game Projects\SpaceFighter new\Library\PlayerScriptAssemblies\Mirror.dll"
-a="E:\Munka Yaw VR\Game Projects\SpaceFighter new\Library\PlayerScriptAssemblies\kcp2k.dll"
-a="E:\Munka Yaw VR\Game Projects\SpaceFighter new\Library\PlayerScriptAssemblies\UnityEngine.TestRunner.dll"
-a="E:\Munka Yaw VR\Game Projects\SpaceFighter new\Library\PlayerScriptAssemblies\Unity.Timeline.dll"
-a="E:\Munka Yaw VR\Game Projects\SpaceFighter new\Library\PlayerScriptAssemblies\Mirror.Examples.dll"
-a="E:\Munka Yaw VR\Game Projects\SpaceFighter new\Library\PlayerScriptAssemblies\Unity.TextMeshPro.dll"
-a="E:\Munka Yaw VR\Game Projects\SpaceFighter new\Library\PlayerScriptAssemblies\Unity.XR.Interaction.Toolkit.dll"
-a="E:\Munka Yaw VR\Game Projects\SpaceFighter new\Library\PlayerScriptAssemblies\Unity.Subsystem.Registration.dll"
-a="E:\Munka Yaw VR\Game Projects\SpaceFighter new\Library\PlayerScriptAssemblies\Unity.InputSystem.dll"
-a="E:\Munka Yaw VR\Game Projects\SpaceFighter new\Library\PlayerScriptAssemblies\UnityEngine.UI.dll"
-a="E:\Munka Yaw VR\Game Projects\SpaceFighter new\Library\PlayerScriptAssemblies\UnityEngine.SpatialTracking.dll"
-a="E:\Munka Yaw VR\Game Projects\SpaceFighter new\Library\PlayerScriptAssemblies\Unity.Postprocessing.Runtime.dll"
-a="E:\Munka Yaw VR\Game Projects\SpaceFighter new\Library\PlayerScriptAssemblies\UnityEngine.XR.LegacyInputHelpers.dll"
-a="E:\Munka Yaw VR\Game Projects\SpaceFighter new\Library\PlayerScriptAssemblies\Unity.XR.CoreUtils.dll"
-a="E:\Munka Yaw VR\Game Projects\SpaceFighter new\Library\PlayerScriptAssemblies\Unity.XR.Management.dll"
-a="E:\Munka Yaw VR\Game Projects\SpaceFighter new\Library\PlayerScriptAssemblies\Mirror.Authenticators.dll"
-a="E:\Munka Yaw VR\Game Projects\SpaceFighter new\Library\PlayerScriptAssemblies\Telepathy.dll"
-a="E:\Munka Yaw VR\Game Projects\SpaceFighter new\Library\PlayerScriptAssemblies\where-allocations.dll"
-a="E:\Munka Yaw VR\Game Projects\SpaceFighter new\Library\PlayerScriptAssemblies\SimpleWebTransport.dll"
-a="E:\Munka Yaw VR\Game Projects\SpaceFighter new\Library\PlayerScriptAssemblies\Mirror.Components.dll"
-a="E:\Munka Yaw VR\Game Projects\SpaceFighter new\Library\PlayerScriptAssemblies\Unity.XR.Oculus.dll"
-a="E:\Munka Yaw VR\Game Projects\SpaceFighter new\Library\PackageCache\com.unity.nuget.newtonsoft-json@2.0.0\Runtime\AOT\Newtonsoft.Json.dll"
-a="E:\Munka Yaw VR\Game Projects\SpaceFighter new\Assets\Mirror\Plugins\Mono.Cecil\Mono.CecilX.Rocks.dll"
-a="E:\Munka Yaw VR\Game Projects\SpaceFighter new\Assets\Mirror\Plugins\Mono.Cecil\Mono.CecilX.Pdb.dll"
-a="E:\Munka Yaw VR\Game Projects\SpaceFighter new\Assets\Mirror\Plugins\Mono.Cecil\Mono.CecilX.dll"
-a="E:\Munka Yaw VR\Game Projects\SpaceFighter new\Library\PackageCache\com.unity.nuget.newtonsoft-json@2.0.0\Runtime\Portable\Newtonsoft.Json.dll"
-a="E:\Munka Yaw VR\Game Projects\SpaceFighter new\Library\PackageCache\com.unity.nuget.newtonsoft-json@2.0.0\Runtime\Newtonsoft.Json.dll"
-a="E:\Munka Yaw VR\Game Projects\SpaceFighter new\Assets\Mirror\Plugins\Mono.Cecil\Mono.CecilX.Mdb.dll"
-a="E:\Munka Yaw VR\Game Projects\SpaceFighter new\Library\PackageCache\com.unity.ext.nunit@1.0.6\net35\unity-custom\nunit.framework.dll"
-s="C:\Program Files\Unity\Hub\Editor\2020.3.22f1\Editor\Data\Managed\UnityEngine"
-s="E:\Munka Yaw VR\Game Projects\SpaceFighter new\Library\PlayerScriptAssemblies"
-s="E:\Munka Yaw VR\Game Projects\SpaceFighter new\Library\PackageCache\com.unity.nuget.newtonsoft-json@2.0.0\Runtime\AOT"
-s="E:\Munka Yaw VR\Game Projects\SpaceFighter new\Assets\Mirror\Plugins\Mono.Cecil"
-s="E:\Munka Yaw VR\Game Projects\SpaceFighter new\Library\PackageCache\com.unity.nuget.newtonsoft-json@2.0.0\Runtime\Portable"
-s="E:\Munka Yaw VR\Game Projects\SpaceFighter new\Library\PackageCache\com.unity.nuget.newtonsoft-json@2.0.0\Runtime"
-s="E:\Munka Yaw VR\Game Projects\SpaceFighter new\Library\PackageCache\com.unity.ext.nunit@1.0.6\net35\unity-custom"
-s="C:\Program Files\Unity\Hub\Editor\2020.3.22f1\Editor\Data\Managed\UnityEngine"
-s="C:\Program Files\Unity\Hub\Editor\2020.3.22f1\Editor\Data\NetStandard\ref\2.0.0"
-s="C:\Program Files\Unity\Hub\Editor\2020.3.22f1\Editor\Data\NetStandard\compat\2.0.0\shims\netstandard"
-s="C:\Program Files\Unity\Hub\Editor\2020.3.22f1\Editor\Data\NetStandard\Extensions\2.0.0"
-s="C:\Program Files\Unity\Hub\Editor\2020.3.22f1\Editor\Data\NetStandard\compat\2.0.0\shims\netfx"
-o="E:\Munka Yaw VR\Game Projects\SpaceFighter new\Library\BuildPlayerData\Player"
-rn="RuntimeInitializeOnLoads.json"
-tn="TypeDb-All.json"
