%YAML 1.1
%TAG !u! tag:unity3d.com,2011:
--- !u!114 &11400000
MonoBehaviour:
  m_ObjectHideFlags: 0
  m_CorrespondingSourceObject: {fileID: 0}
  m_PrefabInstance: {fileID: 0}
  m_PrefabAsset: {fileID: 0}
  m_GameObject: {fileID: 0}
  m_Enabled: 1
  m_EditorHideFlags: 0
  m_Script: {fileID: 11500000, guid: 5b8a4a5fb6aebb84097c4cc2e6b533f7, type: 3}
  m_Name: Heal
  m_EditorClassIdentifier: 
  defaultColor: {r: 0.04383899, g: 0.83, b: 0, a: 1}
  hostileTeams: []
